2de27d51caef065c2dc2da9e652d4739
40aa7a933532aa984079a24c83b9b494
4f3a25de9fb18b6d934fb2f52496e954
ca43695c0d4435c8a9a734f55dae9294
9bc518bca5a477b39e439534a45c45b2
81c487fcc71fad2550eeb25fb3fed28f
ceacc68c95865803728f1627d73ea683
b1e8e4bd1d6e782dd0d63554a9f9f8f3
95e85569cb402979777416b4de18b166
e23e469956ddc4184c8603e05cbe664a
6423bc5c1cf0f728fd2b9acebfedbd13
405fa8012fbdc05ed1dfd953d3cc5776
ac5c599ffff9c845211760f7e715d732
688f5646d7321f5dbdb218439339e83f
fe1420b0cfc5eec4eb6de8067753123e
31d77f5d74079947799305322ed4ed25
cdb8578d4969cc48717c8747b0ed4fa8
8a02cae51cb9c47f53235ebab8b55465
88f8eeee5d87a284a1f0422148ec3f3e
e97bba6d5fe9fa1b8d11c3879e42d623
10c9ea3ed3d8e4ce18ef66523d4f2000
3a39ecd69d8fd0b79716d58a57b17108
f4d95d67083c2eafd8e37548971073de
10fcede7b12b1a328ff2bfd2b406b33d
ad85486bd2d717fd24aa180884c30bf7
709dc7a8777b574605daf0beba4611e2
d92061d72f42b5bdb0e67c823feede34
122ce4083c270dd757e12fa41753a2a5
861e1f987f0d6d8be92dc42ff0c7fc3b
2ebedcb22ffc93158609a53d5883d016
933a3b4878925e5b9d11c240ec91a9e1
2587460b0640294a506d70b768424c0f
a52b29cfe645a480e899a552ecce4364
006cd45cc339e58db22197faf5ebd925
c4b40e19aace0e3784ef9584a71d95f5
ad7982c760a1d7e68059fbc835b69c0d
e0c79f720501714fda17d4517a3a7d11
bbae9f45d42c12153bf6dece18d82e30
8d646377030d6ccd2a51cf99c725b73a
b84ffb2a7c6520bb9125c7c44915e080
4e21de7987f5f1962f03b15efe7c5fa4
795239c2fceedd83e539b3a041bde338
7298c5976922cd4fde733df0d2f8b924
b4a40a23a854bccf6c5b5b30ec118033
bff2798656b7e8d9628cbc3d2b7269bf
69ba6399db62087b9170086db84a901b
b096cfd59f926ca7b43b70cd42c89d41
f9c33f1ae239bf1207a78f776a12e68a
c8a722c1918714a214fb60200776d724
7a820b34c65505926266d923d860efee
fc7705f8144036a673166a30be08289d
6cf2cd0baa342b350717ac30f99ab14b
352be503f8d79b27a4596123a7d9b21c
0c373338a706552ddb96b8d3f5676569
cbac8711da7317f6695309138c712b01
dcc56b6dfed3fed67aef957daa271c55
bf5c90dd1d8e5fe445d4da0a5eae4554
d6d0b0c78d44465273984b01d00bf066
1e2b54c0799fded91bef82f1c24be33d
d05f0dd0388380ce1d9f41f6890f5024
8583b5a80d746d6e0480f606ee9a9b1e
a6ef942eaa3d87c9f295a89ac48f58b7
a87c9476f93dbcc7a436ef41ea3ed215
c61568562b47a2ba3b2ece4d874ebb26
09034d59b7167cfc52b246aa96242301
61566ce3b7573794ac4fca20f4eb8b93
d7e50324400f43b73a3ef0efea9f9ef9
a6b6ecb0aa997fe9b4ba8929d497bb5f
d4c5d3d6d17c37eb5df7e925b2dc3c8d
e7397496eb5ac0a3adb146f61f88cba4
f8b24405f7cc0f619b3d87eace9f2802
99c3c4c4ae41a8d7e5d7a4d17abc470f
1d2e46b8f83e65ca62fddcad15fbbb3b
50d470416b32a95e1b8c251b8630538a
6bc301d5503b5809d875fba9f95fefab
b67f2826dd961bf7be32aa30be667c4c
3767cbe0a1645c9746af189541045b7d
0fa93d3273746abf8e642efcb0d3287a
3cfc4b3dce2f287cee74d207a7dd962f
b44452168edf238e05d20019f76a40c8
9b75e92148bb8006abd35da39ab082ab
a5d66304a9db21d58d2a985cb7de3571
1da0eee77628e0782fcb69ebedda3181
c08a75555aa7ba7fcffd8231971bcde9
2894edc99557d083a2bd405c06be3f32
dae793185cef3d2b3649dc87b13196d2
af7a7639a214ed5b29649875a8da50b4
1e860e768e3a3e20efd6a0c39d03ba1e
3d9fb740dc442be9ee4a8396a1f6af4f
2d8e59d73bc625008f97fb20c7b27ce7
7a34222a96ce0941936ff75de5f1ce24
7c5178ed24ba414d49b8cefa186e381e
4f019078bdd604ff7a4f9e0592b20359
7916e4e34c3787fc7b85738004627c93
c0dd7723a094ee94fded9638ce72b852
cc92b7687e48cfa8dd10454dcd46d15d
ebe9ee10fcd7ce525bbd3ba5e9593a1c
ac5da7f80f9e7d8a3eac924bd5dd2036
5377653ae817c40236bdf7c28e9bb6ef
001bd20dcec3103d81b4e3022c65c7ea
755c207e2256ea2c736a70f440bbde81
8cdf0705ebd4eed35aea8418f5430e9b
03eb2cfc33ea934a4012edfc3a0c3b1c
acb99d736bca22c7d26988e7b0b8cf95
5c2ff53098f6f49567f0471ee07c1f15
85e28054fd644aab9b0311cc79cd47b5
d886f2376d2e82a874b6133b8f8597f6
802da58b7382af33e5e77a2edadd563d
d5994f6b7c3b4dca4b855b362091fa08
a4ef714b10806209622ac32befa4d954
f886709ac3b1a5a4c0c60d11285f7cda
c4df911925618074a2acc22f06f44c83
a6293e7579cec4c497988e118dbc2ed9
ee4eb3037c0e684d3b0261563c735e94
c1dd72b9b9ae8fa21be0ae98d83af937
b7877e5cfa1228566556f5796aa94db0
2aa4a83b369fb626baeb47428f3a2e15
a1de5723866be021abe971ea4037743c
8b54056614af2893b048aaf6328d4782
55b5e87b834c4e2ba2b5796e8379b749
cb2d4ff914b3759c4b70d41abc692c1a
0385f11c3fa0253ffdea4e6cb05abcea
8517e67c60252516f3336e057658c741
